{
  "version": 3,
  "targets": {
    ".NETFramework,Version=v4.6.1": {
      "AvalonEdit/5.0.3": {
        "type": "package",
        "compile": {
          "lib/Net40/_._": {}
        },
        "runtime": {
          "lib/Net40/ICSharpCode.AvalonEdit.dll": {}
        }
      },
      "BouncyCastle/1.8.5": {
        "type": "package",
        "compile": {
          "lib/_._": {}
        },
        "runtime": {
          "lib/BouncyCastle.Crypto.dll": {}
        }
      },
      "ClosedXML/0.87.1": {
        "type": "package",
        "dependencies": {
          "DocumentFormat.OpenXml": "2.5.0"
        },
        "compile": {
          "lib/net40/_._": {}
        },
        "runtime": {
          "lib/net40/ClosedXML.dll": {}
        }
      },
      "CredentialManagement/1.0.2": {
        "type": "package",
        "frameworkAssemblies": [
          "CredentialManagement"
        ],
        "compile": {
          "lib/net35/_._": {}
        },
        "runtime": {
          "lib/net35/CredentialManagement.dll": {}
        }
      },
      "CsvHelper/2.13.5": {
        "type": "package",
        "compile": {
          "lib/net40-client/_._": {}
        },
        "runtime": {
          "lib/net40-client/CsvHelper.dll": {}
        }
      },
      "DocumentFormat.OpenXml/2.5.0": {
        "type": "package",
        "compile": {
          "lib/_._": {}
        },
        "runtime": {
          "lib/DocumentFormat.OpenXml.dll": {}
        }
      },
      "Extended.Wpf.Toolkit/2.8.0": {
        "type": "package",
        "frameworkAssemblies": [
          "PresentationCore",
          "PresentationFramework",
          "System",
          "System.Xaml",
          "WindowsBase"
        ],
        "compile": {
          "lib/net40/_._": {}
        },
        "runtime": {
          "lib/net40/Xceed.Wpf.AvalonDock.Themes.Aero.dll": {},
          "lib/net40/Xceed.Wpf.AvalonDock.Themes.Metro.dll": {},
          "lib/net40/Xceed.Wpf.AvalonDock.Themes.VS2010.dll": {},
          "lib/net40/Xceed.Wpf.AvalonDock.dll": {},
          "lib/net40/Xceed.Wpf.DataGrid.dll": {},
          "lib/net40/Xceed.Wpf.Toolkit.dll": {}
        },
        "resource": {
          "lib/net40/de/Xceed.Wpf.AvalonDock.resources.dll": {
            "locale": "de"
          },
          "lib/net40/es/Xceed.Wpf.AvalonDock.resources.dll": {
            "locale": "es"
          },
          "lib/net40/fr/Xceed.Wpf.AvalonDock.resources.dll": {
            "locale": "fr"
          },
          "lib/net40/hu/Xceed.Wpf.AvalonDock.resources.dll": {
            "locale": "hu"
          },
          "lib/net40/it/Xceed.Wpf.AvalonDock.resources.dll": {
            "locale": "it"
          },
          "lib/net40/pt-BR/Xceed.Wpf.AvalonDock.resources.dll": {
            "locale": "pt-BR"
          },
          "lib/net40/ro/Xceed.Wpf.AvalonDock.resources.dll": {
            "locale": "ro"
          },
          "lib/net40/ru/Xceed.Wpf.AvalonDock.resources.dll": {
            "locale": "ru"
          },
          "lib/net40/sv/Xceed.Wpf.AvalonDock.resources.dll": {
            "locale": "sv"
          },
          "lib/net40/zh-Hans/Xceed.Wpf.AvalonDock.resources.dll": {
            "locale": "zh-Hans"
          }
        }
      },
      "Google.Apis/1.40.2": {
        "type": "package",
        "dependencies": {
          "Google.Apis.Core": "1.40.2",
          "Newtonsoft.Json": "10.0.2"
        },
        "frameworkAssemblies": [
          "System.Net.Http"
        ],
        "compile": {
          "lib/net45/_._": {}
        },
        "runtime": {
          "lib/net45/Google.Apis.PlatformServices.dll": {},
          "lib/net45/Google.Apis.dll": {}
        }
      },
      "Google.Apis.Auth/1.40.2": {
        "type": "package",
        "dependencies": {
          "Google.Apis": "1.40.2",
          "Google.Apis.Core": "1.40.2"
        },
        "frameworkAssemblies": [
          "System.Net.Http"
        ],
        "compile": {
          "lib/net45/_._": {}
        },
        "runtime": {
          "lib/net45/Google.Apis.Auth.PlatformServices.dll": {},
          "lib/net45/Google.Apis.Auth.dll": {}
        }
      },
      "Google.Apis.Calendar.v3/1.40.2.1611": {
        "type": "package",
        "dependencies": {
          "Google.Apis": "1.40.2",
          "Google.Apis.Auth": "1.40.2"
        },
        "compile": {
          "lib/net45/_._": {}
        },
        "runtime": {
          "lib/net45/Google.Apis.Calendar.v3.dll": {}
        }
      },
      "Google.Apis.Core/1.40.2": {
        "type": "package",
        "dependencies": {
          "Newtonsoft.Json": "10.0.2"
        },
        "frameworkAssemblies": [
          "System.Net.Http"
        ],
        "compile": {
          "lib/net45/_._": {}
        },
        "runtime": {
          "lib/net45/Google.Apis.Core.dll": {}
        }
      },
      "Google.Apis.Docs.v1/1.40.2.1615": {
        "type": "package",
        "dependencies": {
          "Google.Apis": "1.40.2",
          "Google.Apis.Auth": "1.40.2"
        },
        "compile": {
          "lib/net45/_._": {}
        },
        "runtime": {
          "lib/net45/Google.Apis.Docs.v1.dll": {}
        }
      },
      "Google.Apis.Drive.v3/1.40.2.1610": {
        "type": "package",
        "dependencies": {
          "Google.Apis": "1.40.2",
          "Google.Apis.Auth": "1.40.2"
        },
        "compile": {
          "lib/net45/_._": {}
        },
        "runtime": {
          "lib/net45/Google.Apis.Drive.v3.dll": {}
        }
      },
      "Google.Apis.Gmail.v1/1.40.2.1613": {
        "type": "package",
        "dependencies": {
          "Google.Apis": "1.40.2",
          "Google.Apis.Auth": "1.40.2"
        },
        "compile": {
          "lib/net45/_._": {}
        },
        "runtime": {
          "lib/net45/Google.Apis.Gmail.v1.dll": {}
        }
      },
      "Google.Apis.Sheets.v4/1.40.2.1614": {
        "type": "package",
        "dependencies": {
          "Google.Apis": "1.40.2",
          "Google.Apis.Auth": "1.40.2"
        },
        "compile": {
          "lib/net45/_._": {}
        },
        "runtime": {
          "lib/net45/Google.Apis.Sheets.v4.dll": {}
        }
      },
      "Humanizer.Core/2.4.2": {
        "type": "package",
        "compile": {
          "lib/netstandard2.0/_._": {}
        },
        "runtime": {
          "lib/netstandard2.0/Humanizer.dll": {}
        }
      },
      "interop.domino.dll/1.0.0": {
        "type": "package",
        "compile": {
          "lib/_._": {}
        },
        "runtime": {
          "lib/Interop.Domino.dll": {}
        }
      },
      "Microsoft.Activities/1.0.1": {
        "type": "package",
        "compile": {
          "lib/net45/_._": {}
        },
        "runtime": {
          "lib/net45/Microsoft.Activities.Design.Services.dll": {},
          "lib/net45/Microsoft.Activities.Design.dll": {},
          "lib/net45/Microsoft.Activities.dll": {},
          "lib/net45/Microsoft.Workflow.Client.dll": {},
          "lib/net45/Microsoft.Workflow.Common.dll": {},
          "lib/net45/Microsoft.Workflow.Tracing.dll": {}
        }
      },
      "Microsoft.AspNet.SignalR.Client/2.4.0": {
        "type": "package",
        "dependencies": {
          "Newtonsoft.Json": "6.0.4"
        },
        "frameworkAssemblies": [
          "System.Net.Http",
          "System.Net.Http.WebRequest"
        ],
        "compile": {
          "lib/net45/_._": {}
        },
        "runtime": {
          "lib/net45/Microsoft.AspNet.SignalR.Client.dll": {}
        }
      },
      "Microsoft.Exchange.WebServices/2.2.0": {
        "type": "package",
        "compile": {
          "lib/40/_._": {}
        },
        "runtime": {
          "lib/40/Microsoft.Exchange.WebServices.Auth.dll": {},
          "lib/40/Microsoft.Exchange.WebServices.dll": {}
        }
      },
      "Microsoft.Rest.ClientRuntime/2.3.10": {
        "type": "package",
        "dependencies": {
          "Newtonsoft.Json": "6.0.8"
        },
        "compile": {
          "lib/net452/_._": {}
        },
        "runtime": {
          "lib/net452/Microsoft.Rest.ClientRuntime.dll": {}
        }
      },
      "Microsoft.VisualStudio.OLE.Interop/7.10.6071": {
        "type": "package",
        "compile": {
          "lib/_._": {}
        },
        "runtime": {
          "lib/Microsoft.VisualStudio.OLE.Interop.dll": {}
        }
      },
      "MimeKit/2.2.0": {
        "type": "package",
        "dependencies": {
          "BouncyCastle": "1.8.5"
        },
        "frameworkAssemblies": [
          "System",
          "System.Core",
          "System.Data",
          "System.Net.Http",
          "System.Security"
        ],
        "compile": {
          "lib/net45/_._": {}
        },
        "runtime": {
          "lib/net45/MimeKit.dll": {}
        }
      },
      "Newtonsoft.Json/11.0.2": {
        "type": "package",
        "compile": {
          "lib/net45/_._": {}
        },
        "runtime": {
          "lib/net45/Newtonsoft.Json.dll": {}
        }
      },
      "NodaTime/2.4.6": {
        "type": "package",
        "frameworkAssemblies": [
          "Microsoft.CSharp",
          "System",
          "System.Numerics",
          "System.Xml"
        ],
        "compile": {
          "lib/net45/_._": {}
        },
        "runtime": {
          "lib/net45/NodaTime.dll": {}
        }
      },
      "NPOI/2.4.1": {
        "type": "package",
        "dependencies": {
          "SharpZipLib": "1.0.0"
        },
        "compile": {
          "lib/net45/_._": {}
        },
        "runtime": {
          "lib/net45/NPOI.OOXML.dll": {},
          "lib/net45/NPOI.OpenXml4Net.dll": {},
          "lib/net45/NPOI.OpenXmlFormats.dll": {},
          "lib/net45/NPOI.dll": {}
        }
      },
      "SharpZipLib/1.0.0": {
        "type": "package",
        "compile": {
          "lib/net45/_._": {}
        },
        "runtime": {
          "lib/net45/ICSharpCode.SharpZipLib.dll": {}
        }
      },
      "UiPath/19.4.7068.19937": {
        "type": "package",
        "compile": {
          "lib/_._": {}
        },
        "runtime": {
          "lib/UiPath.Interop.dll": {}
        },
        "build": {
          "build/_._": {}
        }
      },
      "UiPath.Credentials.Activities/1.1.6479.13204": {
        "type": "package",
        "dependencies": {
          "CredentialManagement": "1.0.2"
        },
        "compile": {
          "lib/net40-client/_._": {}
        },
        "runtime": {
          "lib/net40-client/UiPath.Credentials.Activities.dll": {}
        }
      },
      "UiPath.Excel.Activities/2.5.4": {
        "type": "package",
        "dependencies": {
          "ClosedXML": "0.87.1",
          "CsvHelper": "2.13.5",
          "DocumentFormat.OpenXml": "2.5.0",
          "Microsoft.VisualStudio.OLE.Interop": "7.10.6071",
          "NPOI": "2.4.1",
          "SharpZipLib": "1.0.0"
        },
        "compile": {
          "lib/net452/_._": {}
        },
        "runtime": {
          "lib/net452/UiPath.Excel.Activities.Design.dll": {},
          "lib/net452/UiPath.Excel.Activities.dll": {},
          "lib/net452/UiPath.Excel.dll": {}
        },
        "resource": {
          "lib/net452/fr/UiPath.Excel.Activities.Design.resources.dll": {
            "locale": "fr"
          },
          "lib/net452/fr/UiPath.Excel.Activities.resources.dll": {
            "locale": "fr"
          },
          "lib/net452/fr/UiPath.Excel.resources.dll": {
            "locale": "fr"
          },
          "lib/net452/ja/UiPath.Excel.Activities.Design.resources.dll": {
            "locale": "ja"
          },
          "lib/net452/ja/UiPath.Excel.Activities.resources.dll": {
            "locale": "ja"
          },
          "lib/net452/ja/UiPath.Excel.resources.dll": {
            "locale": "ja"
          },
          "lib/net452/ru/UiPath.Excel.Activities.Design.resources.dll": {
            "locale": "ru"
          },
          "lib/net452/ru/UiPath.Excel.Activities.resources.dll": {
            "locale": "ru"
          },
          "lib/net452/ru/UiPath.Excel.resources.dll": {
            "locale": "ru"
          },
          "lib/net452/zh-CN/UiPath.Excel.Activities.Design.resources.dll": {
            "locale": "zh-CN"
          },
          "lib/net452/zh-CN/UiPath.Excel.Activities.resources.dll": {
            "locale": "zh-CN"
          },
          "lib/net452/zh-CN/UiPath.Excel.resources.dll": {
            "locale": "zh-CN"
          }
        }
      },
      "UiPath.GSuite.Activities/1.3.1": {
        "type": "package",
        "dependencies": {
          "BouncyCastle": "1.8.5",
          "Google.Apis": "1.40.2",
          "Google.Apis.Auth": "1.40.2",
          "Google.Apis.Calendar.v3": "1.40.2",
          "Google.Apis.Core": "1.40.2",
          "Google.Apis.Docs.v1": "1.40.2",
          "Google.Apis.Drive.v3": "1.40.2",
          "Google.Apis.Gmail.v1": "1.40.2",
          "Google.Apis.Sheets.v4": "1.40.2",
          "MimeKit": "2.2.0",
          "Newtonsoft.Json": "10.0.3",
          "NodaTime": "2.4.6"
        },
        "compile": {
          "lib/net461/_._": {}
        },
        "runtime": {
          "lib/net461/UiPath.GSuite.Activities.Design.dll": {},
          "lib/net461/UiPath.GSuite.Activities.dll": {},
          "lib/net461/UiPath.GSuite.dll": {}
        },
        "resource": {
          "lib/net461/de/UiPath.GSuite.Activities.Design.resources.dll": {
            "locale": "de"
          },
          "lib/net461/de/UiPath.GSuite.Activities.resources.dll": {
            "locale": "de"
          },
          "lib/net461/de/UiPath.GSuite.resources.dll": {
            "locale": "de"
          },
          "lib/net461/es-MX/UiPath.GSuite.Activities.Design.resources.dll": {
            "locale": "es-MX"
          },
          "lib/net461/es-MX/UiPath.GSuite.Activities.resources.dll": {
            "locale": "es-MX"
          },
          "lib/net461/es-MX/UiPath.GSuite.resources.dll": {
            "locale": "es-MX"
          },
          "lib/net461/es/UiPath.GSuite.Activities.Design.resources.dll": {
            "locale": "es"
          },
          "lib/net461/es/UiPath.GSuite.Activities.resources.dll": {
            "locale": "es"
          },
          "lib/net461/es/UiPath.GSuite.resources.dll": {
            "locale": "es"
          },
          "lib/net461/fr/UiPath.GSuite.Activities.Design.resources.dll": {
            "locale": "fr"
          },
          "lib/net461/fr/UiPath.GSuite.Activities.resources.dll": {
            "locale": "fr"
          },
          "lib/net461/fr/UiPath.GSuite.resources.dll": {
            "locale": "fr"
          },
          "lib/net461/ja/UiPath.GSuite.Activities.Design.resources.dll": {
            "locale": "ja"
          },
          "lib/net461/ja/UiPath.GSuite.Activities.resources.dll": {
            "locale": "ja"
          },
          "lib/net461/ja/UiPath.GSuite.resources.dll": {
            "locale": "ja"
          },
          "lib/net461/ko/UiPath.GSuite.Activities.Design.resources.dll": {
            "locale": "ko"
          },
          "lib/net461/ko/UiPath.GSuite.Activities.resources.dll": {
            "locale": "ko"
          },
          "lib/net461/ko/UiPath.GSuite.resources.dll": {
            "locale": "ko"
          },
          "lib/net461/pt-BR/UiPath.GSuite.Activities.Design.resources.dll": {
            "locale": "pt-BR"
          },
          "lib/net461/pt-BR/UiPath.GSuite.Activities.resources.dll": {
            "locale": "pt-BR"
          },
          "lib/net461/pt-BR/UiPath.GSuite.resources.dll": {
            "locale": "pt-BR"
          },
          "lib/net461/pt/UiPath.GSuite.Activities.Design.resources.dll": {
            "locale": "pt"
          },
          "lib/net461/pt/UiPath.GSuite.Activities.resources.dll": {
            "locale": "pt"
          },
          "lib/net461/pt/UiPath.GSuite.resources.dll": {
            "locale": "pt"
          },
          "lib/net461/ru/UiPath.GSuite.Activities.Design.resources.dll": {
            "locale": "ru"
          },
          "lib/net461/ru/UiPath.GSuite.Activities.resources.dll": {
            "locale": "ru"
          },
          "lib/net461/ru/UiPath.GSuite.resources.dll": {
            "locale": "ru"
          },
          "lib/net461/tr/UiPath.GSuite.Activities.Design.resources.dll": {
            "locale": "tr"
          },
          "lib/net461/tr/UiPath.GSuite.Activities.resources.dll": {
            "locale": "tr"
          },
          "lib/net461/tr/UiPath.GSuite.resources.dll": {
            "locale": "tr"
          },
          "lib/net461/zh-CN/UiPath.GSuite.Activities.Design.resources.dll": {
            "locale": "zh-CN"
          },
          "lib/net461/zh-CN/UiPath.GSuite.Activities.resources.dll": {
            "locale": "zh-CN"
          },
          "lib/net461/zh-CN/UiPath.GSuite.resources.dll": {
            "locale": "zh-CN"
          }
        }
      },
      "UiPath.Mail.Activities/1.4.1": {
        "type": "package",
        "dependencies": {
          "BouncyCastle": "1.8.1",
          "Microsoft.Exchange.WebServices": "2.2.0",
          "interop.domino.dll": "1.0.0"
        },
        "compile": {
          "lib/net452/_._": {}
        },
        "runtime": {
          "lib/net452/MailKit.dll": {},
          "lib/net452/MimeKit.dll": {},
          "lib/net452/UiPath.Mail.Activities.Design.dll": {},
          "lib/net452/UiPath.Mail.Activities.dll": {},
          "lib/net452/UiPath.Mail.dll": {}
        },
        "resource": {
          "lib/net452/fr/UiPath.Mail.Activities.Design.resources.dll": {
            "locale": "fr"
          },
          "lib/net452/fr/UiPath.Mail.Activities.resources.dll": {
            "locale": "fr"
          },
          "lib/net452/fr/UiPath.Mail.resources.dll": {
            "locale": "fr"
          },
          "lib/net452/ja/UiPath.Mail.Activities.Design.resources.dll": {
            "locale": "ja"
          },
          "lib/net452/ja/UiPath.Mail.Activities.resources.dll": {
            "locale": "ja"
          },
          "lib/net452/ja/UiPath.Mail.resources.dll": {
            "locale": "ja"
          },
          "lib/net452/ru/UiPath.Mail.Activities.Design.resources.dll": {
            "locale": "ru"
          },
          "lib/net452/ru/UiPath.Mail.Activities.resources.dll": {
            "locale": "ru"
          },
          "lib/net452/ru/UiPath.Mail.resources.dll": {
            "locale": "ru"
          },
          "lib/net452/zh-CN/UiPath.Mail.Activities.Design.resources.dll": {
            "locale": "zh-CN"
          },
          "lib/net452/zh-CN/UiPath.Mail.Activities.resources.dll": {
            "locale": "zh-CN"
          },
          "lib/net452/zh-CN/UiPath.Mail.resources.dll": {
            "locale": "zh-CN"
          }
        }
      },
      "UiPath.System.Activities/19.4.1": {
        "type": "package",
        "dependencies": {
          "CsvHelper": "2.13.5",
          "Microsoft.AspNet.SignalR.Client": "2.4.0",
          "Microsoft.Rest.ClientRuntime": "2.3.10",
          "Newtonsoft.Json": "11.0.2"
        },
        "compile": {
          "lib/net461/_._": {}
        },
        "runtime": {
          "lib/net461/ActiproSoftware.Docking.Wpf.dll": {},
          "lib/net461/ActiproSoftware.Ribbon.Wpf.dll": {},
          "lib/net461/ActiproSoftware.Shared.Wpf.dll": {},
          "lib/net461/ActiproSoftware.SyntaxEditor.Addons.DotNet.Wpf.dll": {},
          "lib/net461/ActiproSoftware.SyntaxEditor.Wpf.dll": {},
          "lib/net461/ActiproSoftware.Text.Addons.DotNet.Wpf.dll": {},
          "lib/net461/ActiproSoftware.Text.LLParser.Wpf.dll": {},
          "lib/net461/ActiproSoftware.Text.Wpf.dll": {},
          "lib/net461/ActiproSoftware.Wizard.Wpf.dll": {},
          "lib/net461/CustomInputForm.exe": {},
          "lib/net461/UiPath.OrchestratorClient.dll": {},
          "lib/net461/UiPath.System.Activities.Design.dll": {},
          "lib/net461/UiPath.System.Activities.dll": {}
        },
        "resource": {
          "lib/net461/fr/UiPath.System.Activities.Design.resources.dll": {
            "locale": "fr"
          },
          "lib/net461/fr/UiPath.System.Activities.resources.dll": {
            "locale": "fr"
          },
          "lib/net461/ja/UiPath.System.Activities.Design.resources.dll": {
            "locale": "ja"
          },
          "lib/net461/ja/UiPath.System.Activities.resources.dll": {
            "locale": "ja"
          },
          "lib/net461/ru/UiPath.System.Activities.Design.resources.dll": {
            "locale": "ru"
          },
          "lib/net461/ru/UiPath.System.Activities.resources.dll": {
            "locale": "ru"
          },
          "lib/net461/zh-CN/UiPath.System.Activities.Design.resources.dll": {
            "locale": "zh-CN"
          },
          "lib/net461/zh-CN/UiPath.System.Activities.resources.dll": {
            "locale": "zh-CN"
          }
        }
      },
      "UiPath.UIAutomation.Activities/19.4.2": {
        "type": "package",
        "dependencies": {
          "AvalonEdit": "5.0.3",
          "Extended.Wpf.Toolkit": "2.8.0",
          "Humanizer.Core": "2.4.2",
          "UiPath": "19.4.7068.19937",
          "UiPath.Vision": "1.5.0"
        },
        "compile": {
          "lib/net461/_._": {}
        },
        "runtime": {
          "lib/net461/ActiproSoftware.DataGrid.Contrib.Wpf.dll": {},
          "lib/net461/ActiproSoftware.Docking.Wpf.dll": {},
          "lib/net461/ActiproSoftware.Editors.Wpf.dll": {},
          "lib/net461/ActiproSoftware.Ribbon.Wpf.dll": {},
          "lib/net461/ActiproSoftware.Shared.Wpf.dll": {},
          "lib/net461/ActiproSoftware.SyntaxEditor.Addons.DotNet.Wpf.dll": {},
          "lib/net461/ActiproSoftware.SyntaxEditor.Wpf.dll": {},
          "lib/net461/ActiproSoftware.Text.Addons.DotNet.Wpf.dll": {},
          "lib/net461/ActiproSoftware.Text.LLParser.Wpf.dll": {},
          "lib/net461/ActiproSoftware.Text.Wpf.dll": {},
          "lib/net461/ActiproSoftware.Wizard.Wpf.dll": {},
          "lib/net461/UiPath.UIAutomation.Activities.Design.dll": {},
          "lib/net461/UiPath.UiAutomation.Activities.dll": {},
          "lib/net461/UiPath.Wizards.dll": {}
        },
        "resource": {
          "lib/net461/fr/UiPath.UIAutomation.Activities.Design.resources.dll": {
            "locale": "fr"
          },
          "lib/net461/fr/UiPath.UiAutomation.Activities.resources.dll": {
            "locale": "fr"
          },
          "lib/net461/fr/UiPath.Wizards.resources.dll": {
            "locale": "fr"
          },
          "lib/net461/ja/UiPath.UIAutomation.Activities.Design.resources.dll": {
            "locale": "ja"
          },
          "lib/net461/ja/UiPath.UiAutomation.Activities.resources.dll": {
            "locale": "ja"
          },
          "lib/net461/ja/UiPath.Wizards.resources.dll": {
            "locale": "ja"
          },
          "lib/net461/ru/UiPath.UIAutomation.Activities.Design.resources.dll": {
            "locale": "ru"
          },
          "lib/net461/ru/UiPath.UiAutomation.Activities.resources.dll": {
            "locale": "ru"
          },
          "lib/net461/ru/UiPath.Wizards.resources.dll": {
            "locale": "ru"
          },
          "lib/net461/zh-CN/UiPath.UIAutomation.Activities.Design.resources.dll": {
            "locale": "zh-CN"
          },
          "lib/net461/zh-CN/UiPath.UiAutomation.Activities.resources.dll": {
            "locale": "zh-CN"
          },
          "lib/net461/zh-CN/UiPath.Wizards.resources.dll": {
            "locale": "zh-CN"
          }
        }
      },
      "UiPath.Vision/1.5.0": {
        "type": "package",
        "compile": {
          "lib/net452/_._": {}
        },
        "runtime": {
          "lib/net452/UiPath.Vision.Core.dll": {},
          "lib/net452/UiPath.Vision.dll": {}
        }
      }
    }
  },
  "libraries": {
    "AvalonEdit/5.0.3": {
      "sha512": "L5CgXRniZRxI/tjoBztVgZnvTL1F/qKrRJa+Q88I0Gl78WRNaqdMkuOlkAsOHTauBGZSQNDO0/X+xIpzfzmLdQ==",
      "type": "package",
      "path": "avalonedit/5.0.3",
      "files": [
        ".nupkg.metadata",
        "avalonedit.5.0.3.nupkg.sha512",
        "avalonedit.nuspec",
        "lib/Net35/ICSharpCode.AvalonEdit.dll",
        "lib/Net35/ICSharpCode.AvalonEdit.xml",
        "lib/Net40/ICSharpCode.AvalonEdit.dll",
        "lib/Net40/ICSharpCode.AvalonEdit.xml"
      ]
    },
    "BouncyCastle/1.8.5": {
      "sha512": "196QWfvglefGd/Cr2C4hIdmA9HYkLFZovxJ7L0BAOFlNn+qlmVxqpxpcKGoC5AF4rOuoUq3ylzLgKZW5j4nmDQ==",
      "type": "package",
      "path": "bouncycastle/1.8.5",
      "files": [
        ".nupkg.metadata",
        ".signature.p7s",
        "README.md",
        "bouncycastle.1.8.5.nupkg.sha512",
        "bouncycastle.nuspec",
        "lib/BouncyCastle.Crypto.dll"
      ]
    },
    "ClosedXML/0.87.1": {
      "sha512": "2LC0T8bu2G2kt34C4Ig87uZfrRO4MwMVI54e2To7m3DvwAs2Z2Ir86WQuUoW8Txo1uNGSfmu3DpfpQhSX0bIww==",
      "type": "package",
      "path": "closedxml/0.87.1",
      "files": [
        ".nupkg.metadata",
        "closedxml.0.87.1.nupkg.sha512",
        "closedxml.nuspec",
        "lib/net35/ClosedXML.dll",
        "lib/net35/ClosedXML.pdb",
        "lib/net35/ClosedXML.xml",
        "lib/net40/ClosedXML.dll",
        "lib/net40/ClosedXML.pdb",
        "lib/net40/ClosedXML.xml"
      ]
    },
    "CredentialManagement/1.0.2": {
      "sha512": "VkP04/jFXaxT3TkcRhzETYtOrznQxRmQ2J1XJdbXz47Bir7hIzPR7mFZk4GJQ4An4gozW+vonpf+iqTHomAkQw==",
      "type": "package",
      "path": "credentialmanagement/1.0.2",
      "files": [
        ".nupkg.metadata",
        ".signature.p7s",
        "credentialmanagement.1.0.2.nupkg.sha512",
        "credentialmanagement.nuspec",
        "lib/net35/CredentialManagement.dll"
      ]
    },
    "CsvHelper/2.13.5": {
      "sha512": "fC8DPi/YTcZ8uXFiAeuT9EpsR2TE5cSJ2jg/4tht/Oen6az/djebpYoCQEtI33RfNrSZ533SedOknlWtUTX3fw==",
      "type": "package",
      "path": "csvhelper/2.13.5",
      "files": [
        ".nupkg.metadata",
        "csvhelper.2.13.5.nupkg.sha512",
        "csvhelper.nuspec",
        "lib/net20/CsvHelper.dll",
        "lib/net20/CsvHelper.pdb",
        "lib/net20/CsvHelper.xml",
        "lib/net35-client/CsvHelper.dll",
        "lib/net35-client/CsvHelper.pdb",
        "lib/net35-client/CsvHelper.xml",
        "lib/net40-client/CsvHelper.dll",
        "lib/net40-client/CsvHelper.pdb",
        "lib/net40-client/CsvHelper.xml",
        "lib/portable-net40+sl5+win8+wpa+wp8/CsvHelper.dll",
        "lib/portable-net40+sl5+win8+wpa+wp8/CsvHelper.pdb",
        "lib/portable-net40+sl5+win8+wpa+wp8/CsvHelper.xml"
      ]
    },
    "DocumentFormat.OpenXml/2.5.0": {
      "sha512": "H5jnox0hcLwzAjrpNqDPIItjh7dplF1kk1z8LatpI2h75wBgps1MepEttJFKs7xedQReCMHA0tGpNI0H2B+Mrg==",
      "type": "package",
      "path": "documentformat.openxml/2.5.0",
      "files": [
        ".nupkg.metadata",
        "documentformat.openxml.2.5.0.nupkg.sha512",
        "documentformat.openxml.nuspec",
        "lib/DocumentFormat.OpenXml.dll"
      ]
    },
    "Extended.Wpf.Toolkit/2.8.0": {
      "sha512": "wKjJl4sDyXTVzgiKTBTw8jT0/3OwpEklQuWGe1Nz2HX0joiBeUzIurY2mnERni+8XHwateRcuks6yk/cuR22fA==",
      "type": "package",
      "path": "extended.wpf.toolkit/2.8.0",
      "hasTools": true,
      "files": [
        ".nupkg.metadata",
        ".signature.p7s",
        "extended.wpf.toolkit.2.8.0.nupkg.sha512",
        "extended.wpf.toolkit.nuspec",
        "lib/net35/WPFToolkit.dll",
        "lib/net35/Xceed.Wpf.Toolkit.dll",
        "lib/net40/Xceed.Wpf.AvalonDock.Themes.Aero.dll",
        "lib/net40/Xceed.Wpf.AvalonDock.Themes.Metro.dll",
        "lib/net40/Xceed.Wpf.AvalonDock.Themes.VS2010.dll",
        "lib/net40/Xceed.Wpf.AvalonDock.dll",
        "lib/net40/Xceed.Wpf.DataGrid.dll",
        "lib/net40/Xceed.Wpf.Toolkit.dll",
        "lib/net40/de/Xceed.Wpf.AvalonDock.resources.dll",
        "lib/net40/es/Xceed.Wpf.AvalonDock.resources.dll",
        "lib/net40/fr/Xceed.Wpf.AvalonDock.resources.dll",
        "lib/net40/hu/Xceed.Wpf.AvalonDock.resources.dll",
        "lib/net40/it/Xceed.Wpf.AvalonDock.resources.dll",
        "lib/net40/pt-BR/Xceed.Wpf.AvalonDock.resources.dll",
        "lib/net40/ro/Xceed.Wpf.AvalonDock.resources.dll",
        "lib/net40/ru/Xceed.Wpf.AvalonDock.resources.dll",
        "lib/net40/sv/Xceed.Wpf.AvalonDock.resources.dll",
        "lib/net40/zh-Hans/Xceed.Wpf.AvalonDock.resources.dll",
        "tools/install.ps1"
      ]
    },
    "Google.Apis/1.40.2": {
      "sha512": "cA0x/6oV3K2zpcK3OdqkCUB80QkuVUe9naAdlVcshelPSL9tJzKdBR11LMz4hAOpTc2vtqMm9rkQa4jgOfHRWw==",
      "type": "package",
      "path": "google.apis/1.40.2",
      "files": [
        ".nupkg.metadata",
        ".signature.p7s",
        "LICENSE",
        "google.apis.1.40.2.nupkg.sha512",
        "google.apis.nuspec",
        "lib/net45/Google.Apis.PlatformServices.dll",
        "lib/net45/Google.Apis.dll",
        "lib/net45/Google.Apis.pdb",
        "lib/net45/Google.Apis.xml",
        "lib/netstandard1.3/Google.Apis.dll",
        "lib/netstandard1.3/Google.Apis.pdb",
        "lib/netstandard1.3/Google.Apis.xml",
        "lib/netstandard2.0/Google.Apis.dll",
        "lib/netstandard2.0/Google.Apis.pdb",
        "lib/netstandard2.0/Google.Apis.xml"
      ]
    },
    "Google.Apis.Auth/1.40.2": {
      "sha512": "0YHiCwWF5DkKf7kpe89AjAB9FoJTu1qpPdkw3eUwfFc8ohuGQbxSVgyiieAtWhSvJ01iKH7zepdNR1PyrFPRvQ==",
      "type": "package",
      "path": "google.apis.auth/1.40.2",
      "files": [
        ".nupkg.metadata",
        ".signature.p7s",
        "LICENSE",
        "google.apis.auth.1.40.2.nupkg.sha512",
        "google.apis.auth.nuspec",
        "lib/net45/Google.Apis.Auth.PlatformServices.dll",
        "lib/net45/Google.Apis.Auth.dll",
        "lib/net45/Google.Apis.Auth.pdb",
        "lib/net45/Google.Apis.Auth.xml",
        "lib/netstandard1.3/Google.Apis.Auth.PlatformServices.dll",
        "lib/netstandard1.3/Google.Apis.Auth.dll",
        "lib/netstandard1.3/Google.Apis.Auth.pdb",
        "lib/netstandard1.3/Google.Apis.Auth.xml",
        "lib/netstandard2.0/Google.Apis.Auth.PlatformServices.dll",
        "lib/netstandard2.0/Google.Apis.Auth.dll",
        "lib/netstandard2.0/Google.Apis.Auth.pdb",
        "lib/netstandard2.0/Google.Apis.Auth.xml"
      ]
    },
    "Google.Apis.Calendar.v3/1.40.2.1611": {
      "sha512": "DFxfGsHd/9cGF2WQvcdoQuS5tUVhC/JH7DSeL2tcYmHbaGkGt2LWGc4cw9oOr81u0ErFbtEuEcgkoMLp1OIF7Q==",
      "type": "package",
      "path": "google.apis.calendar.v3/1.40.2.1611",
      "files": [
        ".nupkg.metadata",
        ".signature.p7s",
        "LICENSE",
        "google.apis.calendar.v3.1.40.2.1611.nupkg.sha512",
        "google.apis.calendar.v3.nuspec",
        "lib/net40/Google.Apis.Calendar.v3.dll",
        "lib/net40/Google.Apis.Calendar.v3.pdb",
        "lib/net40/Google.Apis.Calendar.v3.xml",
        "lib/net45/Google.Apis.Calendar.v3.dll",
        "lib/net45/Google.Apis.Calendar.v3.pdb",
        "lib/net45/Google.Apis.Calendar.v3.xml",
        "lib/netstandard1.0/Google.Apis.Calendar.v3.dll",
        "lib/netstandard1.0/Google.Apis.Calendar.v3.pdb",
        "lib/netstandard1.0/Google.Apis.Calendar.v3.xml",
        "lib/netstandard1.3/Google.Apis.Calendar.v3.dll",
        "lib/netstandard1.3/Google.Apis.Calendar.v3.pdb",
        "lib/netstandard1.3/Google.Apis.Calendar.v3.xml",
        "lib/netstandard2.0/Google.Apis.Calendar.v3.dll",
        "lib/netstandard2.0/Google.Apis.Calendar.v3.pdb",
        "lib/netstandard2.0/Google.Apis.Calendar.v3.xml"
      ]
    },
    "Google.Apis.Core/1.40.2": {
      "sha512": "eOI5/BdxfRgrI+3ZGVrogatR7VvHyKvcPCRNDi1KS/ptm0CTf4+zY8I/ryrMCIrKMoW9aQamMoNjbKFruRIv8A==",
      "type": "package",
      "path": "google.apis.core/1.40.2",
      "files": [
        ".nupkg.metadata",
        ".signature.p7s",
        "LICENSE",
        "google.apis.core.1.40.2.nupkg.sha512",
        "google.apis.core.nuspec",
        "lib/net45/Google.Apis.Core.dll",
        "lib/net45/Google.Apis.Core.pdb",
        "lib/net45/Google.Apis.Core.xml",
        "lib/netstandard1.3/Google.Apis.Core.dll",
        "lib/netstandard1.3/Google.Apis.Core.pdb",
        "lib/netstandard1.3/Google.Apis.Core.xml",
        "lib/netstandard2.0/Google.Apis.Core.dll",
        "lib/netstandard2.0/Google.Apis.Core.pdb",
        "lib/netstandard2.0/Google.Apis.Core.xml"
      ]
    },
    "Google.Apis.Docs.v1/1.40.2.1615": {
      "sha512": "vyD92dSRyRLrDnme5uUPbbRlfYGO9Ofya1TlEVrIy50WM7KkffZbpHPu/bs0Bjz6Bz7gIvxH+ZF+Rd9dZaAcqg==",
      "type": "package",
      "path": "google.apis.docs.v1/1.40.2.1615",
      "files": [
        ".nupkg.metadata",
        ".signature.p7s",
        "LICENSE",
        "google.apis.docs.v1.1.40.2.1615.nupkg.sha512",
        "google.apis.docs.v1.nuspec",
        "lib/net40/Google.Apis.Docs.v1.dll",
        "lib/net40/Google.Apis.Docs.v1.pdb",
        "lib/net40/Google.Apis.Docs.v1.xml",
        "lib/net45/Google.Apis.Docs.v1.dll",
        "lib/net45/Google.Apis.Docs.v1.pdb",
        "lib/net45/Google.Apis.Docs.v1.xml",
        "lib/netstandard1.0/Google.Apis.Docs.v1.dll",
        "lib/netstandard1.0/Google.Apis.Docs.v1.pdb",
        "lib/netstandard1.0/Google.Apis.Docs.v1.xml",
        "lib/netstandard1.3/Google.Apis.Docs.v1.dll",
        "lib/netstandard1.3/Google.Apis.Docs.v1.pdb",
        "lib/netstandard1.3/Google.Apis.Docs.v1.xml",
        "lib/netstandard2.0/Google.Apis.Docs.v1.dll",
        "lib/netstandard2.0/Google.Apis.Docs.v1.pdb",
        "lib/netstandard2.0/Google.Apis.Docs.v1.xml"
      ]
    },
    "Google.Apis.Drive.v3/1.40.2.1610": {
      "sha512": "Oh3tglTYQDUuHgvXm44HdfGIiAlMTdF68t49adrs4DYVslictUhm36qo1AUt8+5rDnuSpGuNgq4qdvNzbsVnpw==",
      "type": "package",
      "path": "google.apis.drive.v3/1.40.2.1610",
      "files": [
        ".nupkg.metadata",
        ".signature.p7s",
        "LICENSE",
        "google.apis.drive.v3.1.40.2.1610.nupkg.sha512",
        "google.apis.drive.v3.nuspec",
        "lib/net40/Google.Apis.Drive.v3.dll",
        "lib/net40/Google.Apis.Drive.v3.pdb",
        "lib/net40/Google.Apis.Drive.v3.xml",
        "lib/net45/Google.Apis.Drive.v3.dll",
        "lib/net45/Google.Apis.Drive.v3.pdb",
        "lib/net45/Google.Apis.Drive.v3.xml",
        "lib/netstandard1.0/Google.Apis.Drive.v3.dll",
        "lib/netstandard1.0/Google.Apis.Drive.v3.pdb",
        "lib/netstandard1.0/Google.Apis.Drive.v3.xml",
        "lib/netstandard1.3/Google.Apis.Drive.v3.dll",
        "lib/netstandard1.3/Google.Apis.Drive.v3.pdb",
        "lib/netstandard1.3/Google.Apis.Drive.v3.xml",
        "lib/netstandard2.0/Google.Apis.Drive.v3.dll",
        "lib/netstandard2.0/Google.Apis.Drive.v3.pdb",
        "lib/netstandard2.0/Google.Apis.Drive.v3.xml"
      ]
    },
    "Google.Apis.Gmail.v1/1.40.2.1613": {
      "sha512": "OchJJFq3qAvn3bMiel/abpImMSutWUP3bFEEC5kwYA6YpgHYdfy0M+XafBJVEUw/l6toI3564Kba8z7RZzGpug==",
      "type": "package",
      "path": "google.apis.gmail.v1/1.40.2.1613",
      "files": [
        ".nupkg.metadata",
        ".signature.p7s",
        "LICENSE",
        "google.apis.gmail.v1.1.40.2.1613.nupkg.sha512",
        "google.apis.gmail.v1.nuspec",
        "lib/net40/Google.Apis.Gmail.v1.dll",
        "lib/net40/Google.Apis.Gmail.v1.pdb",
        "lib/net40/Google.Apis.Gmail.v1.xml",
        "lib/net45/Google.Apis.Gmail.v1.dll",
        "lib/net45/Google.Apis.Gmail.v1.pdb",
        "lib/net45/Google.Apis.Gmail.v1.xml",
        "lib/netstandard1.0/Google.Apis.Gmail.v1.dll",
        "lib/netstandard1.0/Google.Apis.Gmail.v1.pdb",
        "lib/netstandard1.0/Google.Apis.Gmail.v1.xml",
        "lib/netstandard1.3/Google.Apis.Gmail.v1.dll",
        "lib/netstandard1.3/Google.Apis.Gmail.v1.pdb",
        "lib/netstandard1.3/Google.Apis.Gmail.v1.xml",
        "lib/netstandard2.0/Google.Apis.Gmail.v1.dll",
        "lib/netstandard2.0/Google.Apis.Gmail.v1.pdb",
        "lib/netstandard2.0/Google.Apis.Gmail.v1.xml"
      ]
    },
    "Google.Apis.Sheets.v4/1.40.2.1614": {
      "sha512": "nwPbfrJRpWL4OT3rpbU8QvK/wcFwpyAUP1K96/BiqAxaMhcKmXs0JssaUFZWF+2QfVo1rtUDgBIYDeQ9PPDYEQ==",
      "type": "package",
      "path": "google.apis.sheets.v4/1.40.2.1614",
      "files": [
        ".nupkg.metadata",
        ".signature.p7s",
        "LICENSE",
        "google.apis.sheets.v4.1.40.2.1614.nupkg.sha512",
        "google.apis.sheets.v4.nuspec",
        "lib/net40/Google.Apis.Sheets.v4.dll",
        "lib/net40/Google.Apis.Sheets.v4.pdb",
        "lib/net40/Google.Apis.Sheets.v4.xml",
        "lib/net45/Google.Apis.Sheets.v4.dll",
        "lib/net45/Google.Apis.Sheets.v4.pdb",
        "lib/net45/Google.Apis.Sheets.v4.xml",
        "lib/netstandard1.0/Google.Apis.Sheets.v4.dll",
        "lib/netstandard1.0/Google.Apis.Sheets.v4.pdb",
        "lib/netstandard1.0/Google.Apis.Sheets.v4.xml",
        "lib/netstandard1.3/Google.Apis.Sheets.v4.dll",
        "lib/netstandard1.3/Google.Apis.Sheets.v4.pdb",
        "lib/netstandard1.3/Google.Apis.Sheets.v4.xml",
        "lib/netstandard2.0/Google.Apis.Sheets.v4.dll",
        "lib/netstandard2.0/Google.Apis.Sheets.v4.pdb",
        "lib/netstandard2.0/Google.Apis.Sheets.v4.xml"
      ]
    },
    "Humanizer.Core/2.4.2": {
      "sha512": "1ZKy7LHVYuhmM398hpvyWCcc2Fcx+hqiGYASELDthjWhVrsA6IabYnHRfkQFF6nGG6x4fA1D0StDX/U2Pj+FdQ==",
      "type": "package",
      "path": "humanizer.core/2.4.2",
      "files": [
        ".nupkg.metadata",
        ".signature.p7s",
        "humanizer.core.2.4.2.nupkg.sha512",
        "humanizer.core.nuspec",
        "lib/netstandard1.0/Humanizer.dll",
        "lib/netstandard1.0/Humanizer.xml",
        "lib/netstandard2.0/Humanizer.dll",
        "lib/netstandard2.0/Humanizer.xml"
      ]
    },
    "interop.domino.dll/1.0.0": {
      "sha512": "gKTX8fwrysbgSWSrJUpMpdp/qmRwYT8JTnbpFzTN72WnX3M1vxkHzpxH3oGMSqpHf20n9AZ0TzDJkt2itp6hyQ==",
      "type": "package",
      "path": "interop.domino.dll/1.0.0",
      "files": [
        ".nupkg.metadata",
        "interop.domino.dll.1.0.0.nupkg.sha512",
        "interop.domino.dll.nuspec",
        "lib/Interop.Domino.dll"
      ]
    },
    "Microsoft.Activities/1.0.1": {
      "sha512": "jkwJR/MMdyLol9wkIXkbpcCu8AUAJte7UZM6IcoeOnrX8cNgHppt6IawNfkhGqQs6ulTklBuZ2DjLj1/154iUA==",
      "type": "package",
      "path": "microsoft.activities/1.0.1",
      "files": [
        ".nupkg.metadata",
        "lib/net45/Microsoft.Activities.Design.Services.dll",
        "lib/net45/Microsoft.Activities.Design.dll",
        "lib/net45/Microsoft.Activities.Design.xml",
        "lib/net45/Microsoft.Activities.dll",
        "lib/net45/Microsoft.Activities.xml",
        "lib/net45/Microsoft.Workflow.Client.dll",
        "lib/net45/Microsoft.Workflow.Client.xml",
        "lib/net45/Microsoft.Workflow.Common.dll",
        "lib/net45/Microsoft.Workflow.Tracing.dll",
        "microsoft.activities.1.0.1.nupkg.sha512",
        "microsoft.activities.nuspec"
      ]
    },
    "Microsoft.AspNet.SignalR.Client/2.4.0": {
      "sha512": "xGoQq9dEsBU49U1Whl0To2JyRQePmo8ayYS8VNruLlQaX+fQBzYyLJeMlW9r7mlt8Vc9JP+083m9pKrfYpdDbg==",
      "type": "package",
      "path": "microsoft.aspnet.signalr.client/2.4.0",
      "files": [
        ".nupkg.metadata",
        ".signature.p7s",
        "lib/net40/Microsoft.AspNet.SignalR.Client.dll",
        "lib/net40/Microsoft.AspNet.SignalR.Client.pdb",
        "lib/net40/Microsoft.AspNet.SignalR.Client.xml",
        "lib/net45/Microsoft.AspNet.SignalR.Client.dll",
        "lib/net45/Microsoft.AspNet.SignalR.Client.pdb",
        "lib/net45/Microsoft.AspNet.SignalR.Client.xml",
        "lib/netstandard1.3/Microsoft.AspNet.SignalR.Client.dll",
        "lib/netstandard1.3/Microsoft.AspNet.SignalR.Client.pdb",
        "lib/netstandard1.3/Microsoft.AspNet.SignalR.Client.xml",
        "lib/netstandard2.0/Microsoft.AspNet.SignalR.Client.dll",
        "lib/netstandard2.0/Microsoft.AspNet.SignalR.Client.pdb",
        "lib/netstandard2.0/Microsoft.AspNet.SignalR.Client.xml",
        "microsoft.aspnet.signalr.client.2.4.0.nupkg.sha512",
        "microsoft.aspnet.signalr.client.nuspec"
      ]
    },
    "Microsoft.Exchange.WebServices/2.2.0": {
      "sha512": "NlkaTD0uWtg9VbiWq0VDWMBPzHFknH3tmstrxt0acrT09LBGqATTjRpsGOODz6tUdX7/dehBinxsf75U5Uw/+A==",
      "type": "package",
      "path": "microsoft.exchange.webservices/2.2.0",
      "files": [
        ".nupkg.metadata",
        "doc/License Terms.rtf",
        "doc/README.htm",
        "doc/Redist.txt",
        "lib/40/Microsoft.Exchange.WebServices.Auth.dll",
        "lib/40/Microsoft.Exchange.WebServices.Auth.pdb",
        "lib/40/Microsoft.Exchange.WebServices.Auth.xml",
        "lib/40/Microsoft.Exchange.WebServices.dll",
        "lib/40/Microsoft.Exchange.WebServices.pdb",
        "lib/40/Microsoft.Exchange.WebServices.xml",
        "microsoft.exchange.webservices.2.2.0.nupkg.sha512",
        "microsoft.exchange.webservices.nuspec"
      ]
    },
    "Microsoft.Rest.ClientRuntime/2.3.10": {
      "sha512": "JO9CzV1hvjtrIzq06gJ5nNv7GV24Xz3Y3O9vx7fCe7ndNA0NmD3fZ9JUgFir2UvJ2/+9vvCo/6RXjyfywvQQIw==",
      "type": "package",
      "path": "microsoft.rest.clientruntime/2.3.10",
      "files": [
        ".nupkg.metadata",
        ".signature.p7s",
        "lib/net452/Microsoft.Rest.ClientRuntime.dll",
        "lib/net452/Microsoft.Rest.ClientRuntime.runtimeconfig.json",
        "lib/net452/Microsoft.Rest.ClientRuntime.xml",
        "lib/netstandard1.4/Microsoft.Rest.ClientRuntime.dll",
        "lib/netstandard1.4/Microsoft.Rest.ClientRuntime.runtimeconfig.json",
        "lib/netstandard1.4/Microsoft.Rest.ClientRuntime.xml",
        "microsoft.rest.clientruntime.2.3.10.nupkg.sha512",
        "microsoft.rest.clientruntime.nuspec"
      ]
    },
    "Microsoft.VisualStudio.OLE.Interop/7.10.6071": {
      "sha512": "PuINhJH41DbKfkNU+qcyC4Wlt/z0DgI/ViZv6gjUclylnFbUIpCdqm4fK+PKJDfiarHTKnGWkxjKuOIS1Bqs5Q==",
      "type": "package",
      "path": "microsoft.visualstudio.ole.interop/7.10.6071",
      "files": [
        ".nupkg.metadata",
        "lib/Microsoft.VisualStudio.OLE.Interop.dll",
        "lib/Microsoft.VisualStudio.OLE.Interop.xml",
        "microsoft.visualstudio.ole.interop.7.10.6071.nupkg.sha512",
        "microsoft.visualstudio.ole.interop.nuspec"
      ]
    },
    "MimeKit/2.2.0": {
      "sha512": "S7X9/8vlLHcDpvIJvqUxgM+dCkLuClTeGBUtargPLGqhNPk4F8VdWH1xzOTXD1OVYwB/HaJYy3Gg1jP20Ordcw==",
      "type": "package",
      "path": "mimekit/2.2.0",
      "files": [
        ".nupkg.metadata",
        ".signature.p7s",
        "lib/monoandroid/BouncyCastle.dll",
        "lib/monoandroid/MimeKit.dll",
        "lib/monoandroid/MimeKit.xml",
        "lib/net45/MimeKit.dll",
        "lib/net45/MimeKit.xml",
        "lib/netstandard1.3/MimeKit.dll",
        "lib/netstandard1.3/MimeKit.xml",
        "lib/netstandard1.6/MimeKit.dll",
        "lib/netstandard1.6/MimeKit.xml",
        "lib/netstandard2.0/MimeKit.dll",
        "lib/netstandard2.0/MimeKit.xml",
        "lib/portable-net45+win8+wpa81/MimeKit.dll",
        "lib/portable-net45+win8+wpa81/MimeKit.xml",
        "lib/portable-net45+win8+wpa81/Portable.Text.Encoding.dll",
        "lib/portable-net45+win8/MimeKit.dll",
        "lib/portable-net45+win8/MimeKit.xml",
        "lib/portable-net45+win8/Portable.Text.Encoding.dll",
        "lib/xamarinios/BouncyCastle.dll",
        "lib/xamarinios/MimeKit.dll",
        "lib/xamarinios/MimeKit.xml",
        "mimekit.2.2.0.nupkg.sha512",
        "mimekit.nuspec"
      ]
    },
    "Newtonsoft.Json/11.0.2": {
      "sha512": "IvJe1pj7JHEsP8B8J8DwlMEx8UInrs/x+9oVY+oCD13jpLu4JbJU2WCIsMRn5C4yW9+DgkaO8uiVE5VHKjpmdQ==",
      "type": "package",
      "path": "newtonsoft.json/11.0.2",
      "files": [
        ".nupkg.metadata",
        ".signature.p7s",
        "LICENSE.md",
        "lib/net20/Newtonsoft.Json.dll",
        "lib/net20/Newtonsoft.Json.xml",
        "lib/net35/Newtonsoft.Json.dll",
        "lib/net35/Newtonsoft.Json.xml",
        "lib/net40/Newtonsoft.Json.dll",
        "lib/net40/Newtonsoft.Json.xml",
        "lib/net45/Newtonsoft.Json.dll",
        "lib/net45/Newtonsoft.Json.xml",
        "lib/netstandard1.0/Newtonsoft.Json.dll",
        "lib/netstandard1.0/Newtonsoft.Json.xml",
        "lib/netstandard1.3/Newtonsoft.Json.dll",
        "lib/netstandard1.3/Newtonsoft.Json.xml",
        "lib/netstandard2.0/Newtonsoft.Json.dll",
        "lib/netstandard2.0/Newtonsoft.Json.xml",
        "lib/portable-net40+sl5+win8+wp8+wpa81/Newtonsoft.Json.dll",
        "lib/portable-net40+sl5+win8+wp8+wpa81/Newtonsoft.Json.xml",
        "lib/portable-net45+win8+wp8+wpa81/Newtonsoft.Json.dll",
        "lib/portable-net45+win8+wp8+wpa81/Newtonsoft.Json.xml",
        "newtonsoft.json.11.0.2.nupkg.sha512",
        "newtonsoft.json.nuspec"
      ]
    },
    "NodaTime/2.4.6": {
      "sha512": "eUqcuV4KY+8w0npHFcfaPn8IrL4TpqVgbHKteXu7/CSeWPtJj5knwIfGoDnEWYONuddCF25Pq2p+PqUtfRXmYg==",
      "type": "package",
      "path": "nodatime/2.4.6",
      "files": [
        ".nupkg.metadata",
        ".signature.p7s",
        "lib/net45/NodaTime.dll",
        "lib/net45/NodaTime.pdb",
        "lib/net45/NodaTime.xml",
        "lib/netstandard1.3/NodaTime.dll",
        "lib/netstandard1.3/NodaTime.pdb",
        "lib/netstandard1.3/NodaTime.xml",
        "lib/netstandard2.0/NodaTime.dll",
        "lib/netstandard2.0/NodaTime.pdb",
        "lib/netstandard2.0/NodaTime.xml",
        "nodatime.2.4.6.nupkg.sha512",
        "nodatime.nuspec"
      ]
    },
    "NPOI/2.4.1": {
      "sha512": "85790/CY9z4DCU1KLpcdLSqaqaqmQOenTqXJfcsYK8LIKNAAoTgjT5LYLbORgdwAd63sbaJiCfB1SIn/dAXrJw==",
      "type": "package",
      "path": "npoi/2.4.1",
      "files": [
        ".nupkg.metadata",
        "LICENSE",
        "Read Me.txt",
        "lib/NPOI.xml",
        "lib/net40/NPOI.OOXML.dll",
        "lib/net40/NPOI.OpenXml4Net.dll",
        "lib/net40/NPOI.OpenXmlFormats.dll",
        "lib/net40/NPOI.dll",
        "lib/net45/NPOI.OOXML.dll",
        "lib/net45/NPOI.OpenXml4Net.dll",
        "lib/net45/NPOI.OpenXmlFormats.dll",
        "lib/net45/NPOI.dll",
        "lib/netstandard2.0/NPOI.OOXML.deps.json",
        "lib/netstandard2.0/NPOI.OOXML.dll",
        "lib/netstandard2.0/NPOI.OpenXml4Net.deps.json",
        "lib/netstandard2.0/NPOI.OpenXml4Net.dll",
        "lib/netstandard2.0/NPOI.OpenXmlFormats.deps.json",
        "lib/netstandard2.0/NPOI.OpenXmlFormats.dll",
        "lib/netstandard2.0/NPOI.deps.json",
        "lib/netstandard2.0/NPOI.dll",
        "logo/120_120.jpg",
        "logo/240_240.png",
        "logo/32_32.jpg",
        "logo/60_60.jpg",
        "npoi.2.4.1.nupkg.sha512",
        "npoi.nuspec"
      ]
    },
    "SharpZipLib/1.0.0": {
      "sha512": "YuYztmY3jEb21F6e5LIPHJjApdtzdCPQ284UzsCKNfkgW71bukFHJES6RbKi+wm053XzFg0LX5/2vj/9gl8F/g==",
      "type": "package",
      "path": "sharpziplib/1.0.0",
      "files": [
        ".nupkg.metadata",
        "lib/net45/ICSharpCode.SharpZipLib.dll",
        "lib/net45/ICSharpCode.SharpZipLib.xml",
        "lib/netstandard2.0/ICSharpCode.SharpZipLib.dll",
        "lib/netstandard2.0/ICSharpCode.SharpZipLib.xml",
        "sharpziplib.1.0.0.nupkg.sha512",
        "sharpziplib.nuspec"
      ]
    },
    "UiPath/19.4.7068.19937": {
      "sha512": "QgaJScTblB1EXGZASh2PHVXX/PDfXzflpBx+ZU2AKnG/UkocX5t+2YWrzXJCBO+Q5FVsagGTjnMOTKZs+0KD4g==",
      "type": "package",
      "path": "uipath/19.4.7068.19937",
      "files": [
        ".nupkg.metadata",
        ".signature.p7s",
        "build/UiPath.targets",
        "build/UiPath/BrowserNativeMessagingImpl.dll",
        "build/UiPath/FuncServer_x64.exe",
        "build/UiPath/FuncServer_x86.exe",
        "build/UiPath/JavaSupport/UiPathBridge.jar",
        "build/UiPath/JavaSupport/UiPathJBIntruder.jar",
        "build/UiPath/JavaSupport/UiPathV8.jar",
        "build/UiPath/JavaSupport/attach_x64/6/attach.dll",
        "build/UiPath/JavaSupport/attach_x64/7/attach.dll",
        "build/UiPath/JavaSupport/attach_x86/6/attach.dll",
        "build/UiPath/JavaSupport/attach_x86/7/attach.dll",
        "build/UiPath/JavaSupport/jaccess-1_2.jar",
        "build/UiPath/JavaSupport/jaccess-1_3.jar",
        "build/UiPath/JavaSupport/jaccess-1_4.jar",
        "build/UiPath/JavaSupport/jaccess.jar",
        "build/UiPath/JavaSupport/tools.jar",
        "build/UiPath/JavaSupport/xml-apis.jar",
        "build/UiPath/Resources/x32.manifest",
        "build/UiPath/Resources/x64.manifest",
        "build/UiPath/SLBroker.dll",
        "build/UiPath/SLBroker.xap",
        "build/UiPath/SLHook.dll",
        "build/UiPath/ShaferFilechck.dll",
        "build/UiPath/TCapture.dll",
        "build/UiPath/TCapture_x64.dll",
        "build/UiPath/UiPath.dll",
        "build/UiPath/UiPathJavaBridgeImplV8.dll",
        "build/UiPath/UiPathJavaBridgeImplV8_x64.dll",
        "build/UiPath/UiPathJavaBridgeV8.dll",
        "build/UiPath/UiPathJavaBridgeV8_x64.dll",
        "build/UiPath/UiPathRemote.exe",
        "build/UiPath/UiPathSLB.dll",
        "build/UiPath/UiPathSLB_x64.dll",
        "build/UiPath/UiPath_x64.dll",
        "build/UiPath/aahook.dll",
        "build/UiPath/aahook_x64.dll",
        "build/UiPath/license.config",
        "build/UiPath/msvcr100.dll",
        "build/UiPath/slinject.exe",
        "build/UiPath/x64/ShaferFilechck_x64.DLL",
        "build/UiPath/x64/msvcr100.dll",
        "lib/UiPath.Interop.dll",
        "uipath.19.4.7068.19937.nupkg.sha512",
        "uipath.nuspec"
      ]
    },
    "UiPath.Credentials.Activities/1.1.6479.13204": {
      "sha512": "2C7e17Lk1G6QenZQwA5q0DETGdAb9K34p6SqPcAOdHHyr+BtYSWLWhXn+zNlMF8ZCr51pHCiBPNp33nok2B3Qw==",
      "type": "package",
      "path": "uipath.credentials.activities/1.1.6479.13204",
      "files": [
        ".nupkg.metadata",
        "lib/net40-client/UiPath.Credentials.Activities.dll",
        "uipath.credentials.activities.1.1.6479.13204.nupkg.sha512",
        "uipath.credentials.activities.nuspec"
      ]
    },
    "UiPath.Excel.Activities/2.5.4": {
      "sha512": "2XxOV2I7emSNvw0Ky1fboMMCjHAK/Bn7TQ3KMHRQZvfccXrBwJmaUSnnoJY3uMsuDsBmuFyeXoeEjGNXYpJoZA==",
      "type": "package",
      "path": "uipath.excel.activities/2.5.4",
      "files": [
        ".nupkg.metadata",
        ".signature.p7s",
        "lib/net452/UiPath.Excel.Activities.Design.dll",
        "lib/net452/UiPath.Excel.Activities.dll",
        "lib/net452/UiPath.Excel.dll",
        "lib/net452/fr/UiPath.Excel.Activities.Design.resources.dll",
        "lib/net452/fr/UiPath.Excel.Activities.resources.dll",
        "lib/net452/fr/UiPath.Excel.resources.dll",
        "lib/net452/ja/UiPath.Excel.Activities.Design.resources.dll",
        "lib/net452/ja/UiPath.Excel.Activities.resources.dll",
        "lib/net452/ja/UiPath.Excel.resources.dll",
        "lib/net452/ru/UiPath.Excel.Activities.Design.resources.dll",
        "lib/net452/ru/UiPath.Excel.Activities.resources.dll",
        "lib/net452/ru/UiPath.Excel.resources.dll",
        "lib/net452/zh-CN/UiPath.Excel.Activities.Design.resources.dll",
        "lib/net452/zh-CN/UiPath.Excel.Activities.resources.dll",
        "lib/net452/zh-CN/UiPath.Excel.resources.dll",
        "uipath.excel.activities.2.5.4.nupkg.sha512",
        "uipath.excel.activities.nuspec"
      ]
    },
    "UiPath.GSuite.Activities/1.3.1": {
      "sha512": "mZ68IR15UOfaaMfefIQbMFu/9Veq61Mn6jNUjHJi3yM2w5lCgRLW3MPLN6odUpGVtYnfmlW2fSHOgUy/mszZcg==",
      "type": "package",
      "path": "uipath.gsuite.activities/1.3.1",
      "files": [
        ".nupkg.metadata",
        "lib/net461/UiPath.GSuite.Activities.Design.dll",
        "lib/net461/UiPath.GSuite.Activities.dll",
        "lib/net461/UiPath.GSuite.dll",
        "lib/net461/de/UiPath.GSuite.Activities.Design.resources.dll",
        "lib/net461/de/UiPath.GSuite.Activities.resources.dll",
        "lib/net461/de/UiPath.GSuite.resources.dll",
        "lib/net461/es-MX/UiPath.GSuite.Activities.Design.resources.dll",
        "lib/net461/es-MX/UiPath.GSuite.Activities.resources.dll",
        "lib/net461/es-MX/UiPath.GSuite.resources.dll",
        "lib/net461/es/UiPath.GSuite.Activities.Design.resources.dll",
        "lib/net461/es/UiPath.GSuite.Activities.resources.dll",
        "lib/net461/es/UiPath.GSuite.resources.dll",
        "lib/net461/fr/UiPath.GSuite.Activities.Design.resources.dll",
        "lib/net461/fr/UiPath.GSuite.Activities.resources.dll",
        "lib/net461/fr/UiPath.GSuite.resources.dll",
        "lib/net461/ja/UiPath.GSuite.Activities.Design.resources.dll",
        "lib/net461/ja/UiPath.GSuite.Activities.resources.dll",
        "lib/net461/ja/UiPath.GSuite.resources.dll",
        "lib/net461/ko/UiPath.GSuite.Activities.Design.resources.dll",
        "lib/net461/ko/UiPath.GSuite.Activities.resources.dll",
        "lib/net461/ko/UiPath.GSuite.resources.dll",
        "lib/net461/pt-BR/UiPath.GSuite.Activities.Design.resources.dll",
        "lib/net461/pt-BR/UiPath.GSuite.Activities.resources.dll",
        "lib/net461/pt-BR/UiPath.GSuite.resources.dll",
        "lib/net461/pt/UiPath.GSuite.Activities.Design.resources.dll",
        "lib/net461/pt/UiPath.GSuite.Activities.resources.dll",
        "lib/net461/pt/UiPath.GSuite.resources.dll",
        "lib/net461/ru/UiPath.GSuite.Activities.Design.resources.dll",
        "lib/net461/ru/UiPath.GSuite.Activities.resources.dll",
        "lib/net461/ru/UiPath.GSuite.resources.dll",
        "lib/net461/tr/UiPath.GSuite.Activities.Design.resources.dll",
        "lib/net461/tr/UiPath.GSuite.Activities.resources.dll",
        "lib/net461/tr/UiPath.GSuite.resources.dll",
        "lib/net461/zh-CN/UiPath.GSuite.Activities.Design.resources.dll",
        "lib/net461/zh-CN/UiPath.GSuite.Activities.resources.dll",
        "lib/net461/zh-CN/UiPath.GSuite.resources.dll",
        "uipath.gsuite.activities.1.3.1.nupkg.sha512",
        "uipath.gsuite.activities.nuspec"
      ]
    },
    "UiPath.Mail.Activities/1.4.1": {
      "sha512": "yYAOlgfdApJKLZ5LBK6lmqFoy6cQI+r295rrUwDDXD41GQvRI+/hVI3W+skZ8op4LVUTyhJWklpmBKmnwccq8Q==",
      "type": "package",
      "path": "uipath.mail.activities/1.4.1",
      "files": [
        ".nupkg.metadata",
        ".signature.p7s",
        "lib/net452/MailKit.dll",
        "lib/net452/MailKit.xml",
        "lib/net452/MimeKit.dll",
        "lib/net452/MimeKit.xml",
        "lib/net452/UiPath.Mail.Activities.Design.dll",
        "lib/net452/UiPath.Mail.Activities.dll",
        "lib/net452/UiPath.Mail.dll",
        "lib/net452/fr/UiPath.Mail.Activities.Design.resources.dll",
        "lib/net452/fr/UiPath.Mail.Activities.resources.dll",
        "lib/net452/fr/UiPath.Mail.resources.dll",
        "lib/net452/ja/UiPath.Mail.Activities.Design.resources.dll",
        "lib/net452/ja/UiPath.Mail.Activities.resources.dll",
        "lib/net452/ja/UiPath.Mail.resources.dll",
        "lib/net452/ru/UiPath.Mail.Activities.Design.resources.dll",
        "lib/net452/ru/UiPath.Mail.Activities.resources.dll",
        "lib/net452/ru/UiPath.Mail.resources.dll",
        "lib/net452/zh-CN/UiPath.Mail.Activities.Design.resources.dll",
        "lib/net452/zh-CN/UiPath.Mail.Activities.resources.dll",
        "lib/net452/zh-CN/UiPath.Mail.resources.dll",
        "uipath.mail.activities.1.4.1.nupkg.sha512",
        "uipath.mail.activities.nuspec"
      ]
    },
    "UiPath.System.Activities/19.4.1": {
      "sha512": "+EKxk5GzVeYYKJEP38RgifZEZ4nPgOX6FIXT5UKcv1aUNi7YI5qRe/0RyqEQmQviBSXnHu019WsODUn61fte7g==",
      "type": "package",
      "path": "uipath.system.activities/19.4.1",
      "files": [
        ".nupkg.metadata",
        ".signature.p7s",
        "lib/net461/ActiproSoftware.Docking.Wpf.dll",
        "lib/net461/ActiproSoftware.Ribbon.Wpf.dll",
        "lib/net461/ActiproSoftware.Shared.Wpf.dll",
        "lib/net461/ActiproSoftware.SyntaxEditor.Addons.DotNet.Wpf.dll",
        "lib/net461/ActiproSoftware.SyntaxEditor.Wpf.dll",
        "lib/net461/ActiproSoftware.Text.Addons.DotNet.Wpf.dll",
        "lib/net461/ActiproSoftware.Text.LLParser.Wpf.dll",
        "lib/net461/ActiproSoftware.Text.Wpf.dll",
        "lib/net461/ActiproSoftware.Wizard.Wpf.dll",
        "lib/net461/CustomInputForm.exe",
        "lib/net461/UiPath.OrchestratorClient.dll",
        "lib/net461/UiPath.System.Activities.Design.dll",
        "lib/net461/UiPath.System.Activities.dll",
        "lib/net461/fr/UiPath.System.Activities.Design.resources.dll",
        "lib/net461/fr/UiPath.System.Activities.resources.dll",
        "lib/net461/ja/UiPath.System.Activities.Design.resources.dll",
        "lib/net461/ja/UiPath.System.Activities.resources.dll",
        "lib/net461/ru/UiPath.System.Activities.Design.resources.dll",
        "lib/net461/ru/UiPath.System.Activities.resources.dll",
        "lib/net461/zh-CN/UiPath.System.Activities.Design.resources.dll",
        "lib/net461/zh-CN/UiPath.System.Activities.resources.dll",
        "uipath.system.activities.19.4.1.nupkg.sha512",
        "uipath.system.activities.nuspec"
      ]
    },
    "UiPath.UIAutomation.Activities/19.4.2": {
      "sha512": "qnI4MTCHU7mK+Ddkoo0U+oDWVaf5HLxYDekRLmExSW3WDRO+4tL9veE+FH/UIjifax20Yukzubz5tUEw+bOuXA==",
      "type": "package",
      "path": "uipath.uiautomation.activities/19.4.2",
      "files": [
        ".nupkg.metadata",
        ".signature.p7s",
        "build/ActiproSoftware.DataGrid.Contrib.Wpf.dll",
        "build/ActiproSoftware.Docking.Wpf.dll",
        "build/ActiproSoftware.Editors.Wpf.dll",
        "build/ActiproSoftware.Ribbon.Wpf.dll",
        "build/ActiproSoftware.Shared.Wpf.dll",
        "build/ActiproSoftware.SyntaxEditor.Addons.DotNet.Wpf.dll",
        "build/ActiproSoftware.SyntaxEditor.Wpf.dll",
        "build/ActiproSoftware.Text.Addons.DotNet.Wpf.dll",
        "build/ActiproSoftware.Text.LLParser.Wpf.dll",
        "build/ActiproSoftware.Text.Wpf.dll",
        "build/ActiproSoftware.Wizard.Wpf.dll",
        "build/ICSharpCode.AvalonEdit.dll",
        "build/UiExplorer.exe",
        "build/UiExplorer.exe.config",
        "build/UiPath.Activities.Contracts.dll",
        "build/UiPath.UIAutomation.Activities.Design.dll",
        "build/UiPath.UiAutomation.Activities.dll",
        "build/fr/UiExplorer.resources.dll",
        "build/fr/UiPath.UIAutomation.Activities.Design.resources.dll",
        "build/fr/UiPath.UiAutomation.Activities.resources.dll",
        "build/ja/UiExplorer.resources.dll",
        "build/ja/UiPath.UIAutomation.Activities.Design.resources.dll",
        "build/ja/UiPath.UiAutomation.Activities.resources.dll",
        "build/ru/UiExplorer.resources.dll",
        "build/ru/UiPath.UIAutomation.Activities.Design.resources.dll",
        "build/ru/UiPath.UiAutomation.Activities.resources.dll",
        "build/zh-CN/UiExplorer.resources.dll",
        "build/zh-CN/UiPath.UIAutomation.Activities.Design.resources.dll",
        "build/zh-CN/UiPath.UiAutomation.Activities.resources.dll",
        "lib/net461/ActiproSoftware.DataGrid.Contrib.Wpf.dll",
        "lib/net461/ActiproSoftware.Docking.Wpf.dll",
        "lib/net461/ActiproSoftware.Editors.Wpf.dll",
        "lib/net461/ActiproSoftware.Ribbon.Wpf.dll",
        "lib/net461/ActiproSoftware.Shared.Wpf.dll",
        "lib/net461/ActiproSoftware.SyntaxEditor.Addons.DotNet.Wpf.dll",
        "lib/net461/ActiproSoftware.SyntaxEditor.Wpf.dll",
        "lib/net461/ActiproSoftware.Text.Addons.DotNet.Wpf.dll",
        "lib/net461/ActiproSoftware.Text.LLParser.Wpf.dll",
        "lib/net461/ActiproSoftware.Text.Wpf.dll",
        "lib/net461/ActiproSoftware.Wizard.Wpf.dll",
        "lib/net461/UiPath.UIAutomation.Activities.Design.dll",
        "lib/net461/UiPath.UiAutomation.Activities.dll",
        "lib/net461/UiPath.Wizards.dll",
        "lib/net461/fr/UiPath.UIAutomation.Activities.Design.resources.dll",
        "lib/net461/fr/UiPath.UiAutomation.Activities.resources.dll",
        "lib/net461/fr/UiPath.Wizards.resources.dll",
        "lib/net461/ja/UiPath.UIAutomation.Activities.Design.resources.dll",
        "lib/net461/ja/UiPath.UiAutomation.Activities.resources.dll",
        "lib/net461/ja/UiPath.Wizards.resources.dll",
        "lib/net461/ru/UiPath.UIAutomation.Activities.Design.resources.dll",
        "lib/net461/ru/UiPath.UiAutomation.Activities.resources.dll",
        "lib/net461/ru/UiPath.Wizards.resources.dll",
        "lib/net461/zh-CN/UiPath.UIAutomation.Activities.Design.resources.dll",
        "lib/net461/zh-CN/UiPath.UiAutomation.Activities.resources.dll",
        "lib/net461/zh-CN/UiPath.Wizards.resources.dll",
        "uipath.uiautomation.activities.19.4.2.nupkg.sha512",
        "uipath.uiautomation.activities.nuspec"
      ]
    },
    "UiPath.Vision/1.5.0": {
      "sha512": "SJ6XfVob64xnONBQvMjtRDEoQzfvdI19EYWmuhRvTs55TvRAaYaxw3KH40NLJ3Xp+2hG3HSaRNxNd/df5mDW6Q==",
      "type": "package",
      "path": "uipath.vision/1.5.0",
      "files": [
        ".nupkg.metadata",
        ".signature.p7s",
        "build/AForge.Imaging.dll",
        "build/AForge.Math.dll",
        "build/AForge.dll",
        "build/AbbyyOnlineSdk.dll",
        "build/BouncyCastle.Crypto.dll",
        "build/Emgu.CV.World.dll",
        "build/Google.Api.CommonProtos.dll",
        "build/Google.Api.Gax.Grpc.dll",
        "build/Google.Api.Gax.dll",
        "build/Google.Apis.Auth.PlatformServices.dll",
        "build/Google.Apis.Auth.dll",
        "build/Google.Apis.Core.dll",
        "build/Google.Apis.PlatformServices.dll",
        "build/Google.Apis.dll",
        "build/Google.Cloud.Vision.V1.dll",
        "build/Google.LongRunning.dll",
        "build/Google.Protobuf.dll",
        "build/Grpc.Auth.dll",
        "build/Grpc.Core.dll",
        "build/Microsoft.Azure.CognitiveServices.Vision.ComputerVision.dll",
        "build/Microsoft.ProjectOxford.Vision.dll",
        "build/Microsoft.Rest.ClientRuntime.Azure.dll",
        "build/Microsoft.Rest.ClientRuntime.dll",
        "build/NLog.dll",
        "build/Newtonsoft.Json.dll",
        "build/System.Collections.Immutable.dll",
        "build/System.Interactive.Async.dll",
        "build/System.ValueTuple.dll",
        "build/UiPath.Vision.AbbyyCloud.dll",
        "build/UiPath.Vision.AbbyyFRE11.dll",
        "build/UiPath.Vision.AbbyyFRE12.dll",
        "build/UiPath.Vision.AbbyyFRECommon.dll",
        "build/UiPath.Vision.AzureComputerVision.dll",
        "build/UiPath.Vision.Core.dll",
        "build/UiPath.Vision.GoogleCloud.dll",
        "build/UiPath.Vision.Host32.exe",
        "build/UiPath.Vision.Host32.exe.config",
        "build/UiPath.Vision.Microsoft.dll",
        "build/UiPath.Vision.MicrosoftCloud.dll",
        "build/UiPath.Vision.Tesseract.dll",
        "build/UiPath.Vision.dll",
        "build/ZedGraph.dll",
        "build/Zlib.Portable.dll",
        "build/grpc_csharp_ext.x64.dll",
        "build/grpc_csharp_ext.x86.dll",
        "build/nlog.config",
        "build/tessdata/eng.traineddata",
        "build/x86/concrt140.dll",
        "build/x86/cvextern.dll",
        "build/x86/msvcp140.dll",
        "build/x86/opencv_ffmpeg341.dll",
        "build/x86/tbb.dll",
        "build/x86/vcruntime140.dll",
        "lib/net452/UiPath.Vision.AbbyyCloud.dll",
        "lib/net452/UiPath.Vision.AbbyyFRE11.dll",
        "lib/net452/UiPath.Vision.AbbyyFRE12.dll",
        "lib/net452/UiPath.Vision.AbbyyFRECommon.dll",
        "lib/net452/UiPath.Vision.AzureComputerVision.dll",
        "lib/net452/UiPath.Vision.Core.dll",
        "lib/net452/UiPath.Vision.GoogleCloud.dll",
        "lib/net452/UiPath.Vision.Host32.exe",
        "lib/net452/UiPath.Vision.Microsoft.dll",
        "lib/net452/UiPath.Vision.MicrosoftCloud.dll",
        "lib/net452/UiPath.Vision.Tesseract.dll",
        "lib/net452/UiPath.Vision.dll",
        "uipath.vision.1.5.0.nupkg.sha512",
        "uipath.vision.nuspec"
      ]
    }
  },
  "projectFileDependencyGroups": {
    "": [],
    ".NETFramework,Version=v4.6.1": [
      "Microsoft.Activities >= 1.0.1 <= 1.0.1",
      "UiPath.Credentials.Activities >= 1.1.6479.13204 <= 1.1.6479.13204",
      "UiPath.Excel.Activities >= 2.5.4 <= 2.5.4",
      "UiPath.GSuite.Activities >= 1.3.1 <= 1.3.1",
      "UiPath.Mail.Activities >= 1.4.1 <= 1.4.1",
      "UiPath.System.Activities >= 19.4.1 <= 19.4.1",
      "UiPath.UIAutomation.Activities >= 19.4.2 <= 19.4.2"
    ]
  },
  "packageFolders": {
    "C:\\Users\\Indra\\.nuget\\packages\\": {}
  },
  "project": {
    "restore": {
      "projectUniqueName": "Robot_InterProcess_Communication",
      "projectName": "Robot_InterProcess_Communication",
      "projectPath": "D:\\robot_interprocess_communication\\.local",
      "packagesPath": "C:\\Users\\Indra\\.nuget\\packages\\",
      "outputPath": "D:\\robot_interprocess_communication\\.local"
    },
    "frameworks": {
      "net461": {
        "dependencies": {
          "Microsoft.Activities": {
            "include": "Runtime",
            "target": "Package",
            "version": "[1.0.1, 1.0.1]"
          },
          "UiPath.Credentials.Activities": {
            "include": "Runtime",
            "target": "Package",
            "version": "[1.1.6479.13204, 1.1.6479.13204]"
          },
          "UiPath.Excel.Activities": {
            "include": "Runtime",
            "target": "Package",
            "version": "[2.5.4, 2.5.4]"
          },
          "UiPath.GSuite.Activities": {
            "include": "Runtime",
            "target": "Package",
            "version": "[1.3.1, 1.3.1]"
          },
          "UiPath.Mail.Activities": {
            "include": "Runtime",
            "target": "Package",
            "version": "[1.4.1, 1.4.1]"
          },
          "UiPath.System.Activities": {
            "include": "Runtime",
            "target": "Package",
            "version": "[19.4.1, 19.4.1]"
          },
          "UiPath.UIAutomation.Activities": {
            "include": "Runtime",
            "target": "Package",
            "version": "[19.4.2, 19.4.2]"
          }
        }
      }
    }
  },
  "logs": [
    {
      "code": "NU1603",
      "level": "Warning",
      "warningLevel": 1,
      "message": "UiPath.GSuite.Activities 1.3.1 depends on Google.Apis.Calendar.v3 (>= 1.40.2) but Google.Apis.Calendar.v3 1.40.2 was not found. An approximate best match of Google.Apis.Calendar.v3 1.40.2.1611 was resolved.",
      "libraryId": "Google.Apis.Calendar.v3",
      "targetGraphs": [
        ".NETFramework,Version=v4.6.1"
      ]
    },
    {
      "code": "NU1603",
      "level": "Warning",
      "warningLevel": 1,
      "message": "UiPath.GSuite.Activities 1.3.1 depends on Google.Apis.Docs.v1 (>= 1.40.2) but Google.Apis.Docs.v1 1.40.2 was not found. An approximate best match of Google.Apis.Docs.v1 1.40.2.1615 was resolved.",
      "libraryId": "Google.Apis.Docs.v1",
      "targetGraphs": [
        ".NETFramework,Version=v4.6.1"
      ]
    },
    {
      "code": "NU1603",
      "level": "Warning",
      "warningLevel": 1,
      "message": "UiPath.GSuite.Activities 1.3.1 depends on Google.Apis.Drive.v3 (>= 1.40.2) but Google.Apis.Drive.v3 1.40.2 was not found. An approximate best match of Google.Apis.Drive.v3 1.40.2.1610 was resolved.",
      "libraryId": "Google.Apis.Drive.v3",
      "targetGraphs": [
        ".NETFramework,Version=v4.6.1"
      ]
    },
    {
      "code": "NU1603",
      "level": "Warning",
      "warningLevel": 1,
      "message": "UiPath.GSuite.Activities 1.3.1 depends on Google.Apis.Gmail.v1 (>= 1.40.2) but Google.Apis.Gmail.v1 1.40.2 was not found. An approximate best match of Google.Apis.Gmail.v1 1.40.2.1613 was resolved.",
      "libraryId": "Google.Apis.Gmail.v1",
      "targetGraphs": [
        ".NETFramework,Version=v4.6.1"
      ]
    },
    {
      "code": "NU1603",
      "level": "Warning",
      "warningLevel": 1,
      "message": "UiPath.GSuite.Activities 1.3.1 depends on Google.Apis.Sheets.v4 (>= 1.40.2) but Google.Apis.Sheets.v4 1.40.2 was not found. An approximate best match of Google.Apis.Sheets.v4 1.40.2.1614 was resolved.",
      "libraryId": "Google.Apis.Sheets.v4",
      "targetGraphs": [
        ".NETFramework,Version=v4.6.1"
      ]
    }
  ]
}